§6 Quantitative Text Analysis Basics 📊 – Intro to DH
…
dh_keywords_final <- dh_keywords_trimmed %>%
  filter(_(keyword) > _)

# Display the final result and the number of rows
print(dh_keywords_final)
paste("Number of keywords after preprocessing:", nrow(dh_keywords_final))

dh_keywords_final <- dh_keywords_trimmed %>%
  filter(nchar(keyword) > 0)

# Display the final result and the number of rows
print(dh_keywords_final)

# A tibble: 180 × 1
   keyword
   <chr>  
 1 math   
 2 chatgpt
 3 ai     
 4 ai     
 5 ai     
 6 ai     
 7 coding 
 8 ai     
 9 ai     
10 data   
# ℹ 170 more rows
…
